{
	"info": {
		"_postman_id": "4f3c28c6-b662-4874-ba73-a380da9f88f7",
		"name": "session28-29",
		"schema": "https://schema.getpostman.com/json/collection/v2.1.0/collection.json"
	},
	"item": [
		{
			"name": "GET IN EXPRESS",
			"request": {
				"method": "GET",
				"header": [],
				"url": {
					"raw": "localhost:4000",
					"host": [
						"localhost"
					],
					"port": "4000"
				}
			},
			"response": []
		},
		{
			"name": "GREETING",
			"request": {
				"method": "GET",
				"header": [],
				"url": {
					"raw": "localhost:4000/greeting",
					"host": [
						"localhost"
					],
					"port": "4000",
					"path": [
						"greeting"
					]
				}
			},
			"response": []
		},
		{
			"name": "GET USERS IN EXPRESS",
			"request": {
				"method": "GET",
				"header": [],
				"url": {
					"raw": "localhost:4000/users",
					"host": [
						"localhost"
					],
					"port": "4000",
					"path": [
						"users"
					]
				}
			},
			"response": []
		},
		{
			"name": "ADD A USER",
			"request": {
				"method": "POST",
				"header": [],
				"body": {
					"mode": "raw",
					"raw": "{\n\t\"username\": \"kimpotsu\",\n\t\"email\": \"kimpoychampoy@gmail.com\",\n\t\"password\": \"solovility\"\n}\n",
					"options": {
						"raw": {
							"language": "json"
						}
					}
				},
				"url": {
					"raw": "localhost:4000/users",
					"host": [
						"localhost"
					],
					"port": "4000",
					"path": [
						"users"
					]
				}
			},
			"response": []
		},
		{
			"name": "DELETE A USER",
			"request": {
				"method": "DELETE",
				"header": [],
				"url": {
					"raw": "localhost:4000/users",
					"host": [
						"localhost"
					],
					"port": "4000",
					"path": [
						"users"
					]
				}
			},
			"response": []
		},
		{
			"name": "GET SINGLE USER",
			"protocolProfileBehavior": {
				"disableBodyPruning": true
			},
			"request": {
				"method": "GET",
				"header": [],
				"body": {
					"mode": "raw",
					"raw": ""
				},
				"url": {
					"raw": "localhost:4000/users/getSingleUser/1",
					"host": [
						"localhost"
					],
					"port": "4000",
					"path": [
						"users",
						"getSingleUser",
						"1"
					]
				}
			},
			"response": []
		},
		{
			"name": "UPDATE PASSWORD",
			"request": {
				"method": "PUT",
				"header": [],
				"body": {
					"mode": "raw",
					"raw": "{\n    \"password\": \"dualivility\"\n}",
					"options": {
						"raw": {
							"language": "json"
						}
					}
				},
				"url": {
					"raw": "localhost:4000/users/2",
					"host": [
						"localhost"
					],
					"port": "4000",
					"path": [
						"users",
						"2"
					]
				}
			},
			"response": []
		},
		{
			"name": "UPDATE PRICE",
			"request": {
				"method": "PUT",
				"header": [],
				"body": {
					"mode": "raw",
					"raw": "{\n    \"price\" : 160\n}",
					"options": {
						"raw": {
							"language": "json"
						}
					}
				},
				"url": {
					"raw": "localhost:4000/items/1",
					"host": [
						"localhost"
					],
					"port": "4000",
					"path": [
						"items",
						"1"
					]
				}
			},
			"response": []
		},
		{
			"name": "GET ITEMS",
			"request": {
				"method": "GET",
				"header": [],
				"url": {
					"raw": "localhost:4000/items",
					"host": [
						"localhost"
					],
					"port": "4000",
					"path": [
						"items"
					]
				}
			},
			"response": []
		},
		{
			"name": "ADD ITEM",
			"request": {
				"method": "POST",
				"header": [],
				"body": {
					"mode": "raw",
					"raw": "    {\n        \"name\": \"bike\",\n        \"price\": 150,\n        \"isActive\": true\n    }",
					"options": {
						"raw": {
							"language": "json"
						}
					}
				},
				"url": {
					"raw": "localhost:4000/items",
					"host": [
						"localhost"
					],
					"port": "4000",
					"path": [
						"items"
					]
				}
			},
			"response": []
		},
		{
			"name": "GET SINGLE ITEM",
			"protocolProfileBehavior": {
				"disableBodyPruning": true
			},
			"request": {
				"method": "GET",
				"header": [],
				"body": {
					"mode": "raw",
					"raw": "",
					"options": {
						"raw": {
							"language": "json"
						}
					}
				},
				"url": {
					"raw": "localhost:4000/items/getSingleItem/2",
					"host": [
						"localhost"
					],
					"port": "4000",
					"path": [
						"items",
						"getSingleItem",
						"2"
					]
				}
			},
			"response": []
		},
		{
			"name": "ARCHIVE ITEM",
			"request": {
				"method": "PUT",
				"header": [],
				"url": {
					"raw": "localhost:4000/items/archive/",
					"host": [
						"localhost"
					],
					"port": "4000",
					"path": [
						"items",
						"archive",
						""
					]
				}
			},
			"response": []
		},
		{
			"name": "ACTIVATE ITEM",
			"request": {
				"method": "PUT",
				"header": [],
				"url": {
					"raw": "localhost:4000/items/activate",
					"host": [
						"localhost"
					],
					"port": "4000",
					"path": [
						"items",
						"activate"
					]
				}
			},
			"response": []
		}
	]
}